%YAML 1.1
%TAG !u! tag:unity3d.com,2011:
--- !u!114 &11400000
MonoBehaviour:
  m_ObjectHideFlags: 0
  m_CorrespondingSourceObject: {fileID: 0}
  m_PrefabInstance: {fileID: 0}
  m_PrefabAsset: {fileID: 0}
  m_GameObject: {fileID: 0}
  m_Enabled: 1
  m_EditorHideFlags: 0
  m_Script: {fileID: 11500000, guid: c333ccfdd0cbdbc4ca30cef2dd6e6b9b, type: 3}
  m_Name: PlayerModSetter
  m_EditorClassIdentifier: 
  serializedUdonProgramAsset: {fileID: 11400000, guid: f928a0c2912bca04dba4d5fdf08a05e1,
    type: 2}
  udonAssembly: 
  assemblyError: 
  sourceCsScript: {fileID: 11500000, guid: b8c59fc0a015dcc4b86d7e90312acf63, type: 3}
  scriptVersion: 2
  compiledVersion: 2
  behaviourSyncMode: 2
  hasInteractEvent: 0
  scriptID: -58344667080892347
  serializationData:
    SerializedFormat: 2
    SerializedBytes: 
    ReferencedUnityObjects: []
    SerializedBytesString: 
    Prefab: {fileID: 0}
    PrefabModificationsReferencedUnityObjects: []
    PrefabModifications: []
    SerializationNodes:
    - Name: fieldDefinitions
      Entry: 7
      Data: 0|System.Collections.Generic.Dictionary`2[[System.String, mscorlib],[UdonSharp.Compiler.FieldDefinition,
        UdonSharp.Editor]], mscorlib
    - Name: comparer
      Entry: 7
      Data: 1|System.Collections.Generic.GenericEqualityComparer`1[[System.String,
        mscorlib]], mscorlib
    - Name: 
      Entry: 8
      Data: 
    - Name: 
      Entry: 12
      Data: 6
    - Name: 
      Entry: 7
      Data: 
    - Name: $k
      Entry: 1
      Data: jumpHeight
    - Name: $v
      Entry: 7
      Data: 2|UdonSharp.Compiler.FieldDefinition, UdonSharp.Editor
    - Name: <Name>k__BackingField
      Entry: 1
      Data: jumpHeight
    - Name: <UserType>k__BackingField
      Entry: 7
      Data: 3|System.RuntimeType, mscorlib
    - Name: 
      Entry: 1
      Data: System.Single, mscorlib
    - Name: 
      Entry: 8
      Data: 
    - Name: <SystemType>k__BackingField
      Entry: 9
      Data: 3
    - Name: <SyncMode>k__BackingField
      Entry: 7
      Data: System.Nullable`1[[UdonSharp.UdonSyncMode, UdonSharp.Runtime]], mscorlib
    - Name: 
      Entry: 6
      Data: 
    - Name: 
      Entry: 8
      Data: 
    - Name: <IsSerialized>k__BackingField
      Entry: 5
      Data: true
    - Name: _fieldAttributes
      Entry: 7
      Data: 4|System.Collections.Generic.List`1[[System.Attribute, mscorlib]], mscorlib
    - Name: 
      Entry: 12
      Data: 0
    - Name: 
      Entry: 13
      Data: 
    - Name: 
      Entry: 8
      Data: 
    - Name: 
      Entry: 8
      Data: 
    - Name: 
      Entry: 8
      Data: 
    - Name: 
      Entry: 7
      Data: 
    - Name: $k
      Entry: 1
      Data: runSpeed
    - Name: $v
      Entry: 7
      Data: 5|UdonSharp.Compiler.FieldDefinition, UdonSharp.Editor
    - Name: <Name>k__BackingField
      Entry: 1
      Data: runSpeed
    - Name: <UserType>k__BackingField
      Entry: 9
      Data: 3
    - Name: <SystemType>k__BackingField
      Entry: 9
      Data: 3
    - Name: <SyncMode>k__BackingField
      Entry: 7
      Data: System.Nullable`1[[UdonSharp.UdonSyncMode, UdonSharp.Runtime]], mscorlib
    - Name: 
      Entry: 6
      Data: 
    - Name: 
      Entry: 8
      Data: 
    - Name: <IsSerialized>k__BackingField
      Entry: 5
      Data: true
    - Name: _fieldAttributes
      Entry: 7
      Data: 6|System.Collections.Generic.List`1[[System.Attribute, mscorlib]], mscorlib
    - Name: 
      Entry: 12
      Data: 0
    - Name: 
      Entry: 13
      Data: 
    - Name: 
      Entry: 8
      Data: 
    - Name: 
      Entry: 8
      Data: 
    - Name: 
      Entry: 8
      Data: 
    - Name: 
      Entry: 7
      Data: 
    - Name: $k
      Entry: 1
      Data: walkSpeed
    - Name: $v
      Entry: 7
      Data: 7|UdonSharp.Compiler.FieldDefinition, UdonSharp.Editor
    - Name: <Name>k__BackingField
      Entry: 1
      Data: walkSpeed
    - Name: <UserType>k__BackingField
      Entry: 9
      Data: 3
    - Name: <SystemType>k__BackingField
      Entry: 9
      Data: 3
    - Name: <SyncMode>k__BackingField
      Entry: 7
      Data: System.Nullable`1[[UdonSharp.UdonSyncMode, UdonSharp.Runtime]], mscorlib
    - Name: 
      Entry: 6
      Data: 
    - Name: 
      Entry: 8
      Data: 
    - Name: <IsSerialized>k__BackingField
      Entry: 5
      Data: true
    - Name: _fieldAttributes
      Entry: 7
      Data: 8|System.Collections.Generic.List`1[[System.Attribute, mscorlib]], mscorlib
    - Name: 
      Entry: 12
      Data: 0
    - Name: 
      Entry: 13
      Data: 
    - Name: 
      Entry: 8
      Data: 
    - Name: 
      Entry: 8
      Data: 
    - Name: 
      Entry: 8
      Data: 
    - Name: 
      Entry: 7
      Data: 
    - Name: $k
      Entry: 1
      Data: strafeSpeed
    - Name: $v
      Entry: 7
      Data: 9|UdonSharp.Compiler.FieldDefinition, UdonSharp.Editor
    - Name: <Name>k__BackingField
      Entry: 1
      Data: strafeSpeed
    - Name: <UserType>k__BackingField
      Entry: 9
      Data: 3
    - Name: <SystemType>k__BackingField
      Entry: 9
      Data: 3
    - Name: <SyncMode>k__BackingField
      Entry: 7
      Data: System.Nullable`1[[UdonSharp.UdonSyncMode, UdonSharp.Runtime]], mscorlib
    - Name: 
      Entry: 6
      Data: 
    - Name: 
      Entry: 8
      Data: 
    - Name: <IsSerialized>k__BackingField
      Entry: 5
      Data: true
    - Name: _fieldAttributes
      Entry: 7
      Data: 10|System.Collections.Generic.List`1[[System.Attribute, mscorlib]], mscorlib
    - Name: 
      Entry: 12
      Data: 0
    - Name: 
      Entry: 13
      Data: 
    - Name: 
      Entry: 8
      Data: 
    - Name: 
      Entry: 8
      Data: 
    - Name: 
      Entry: 8
      Data: 
    - Name: 
      Entry: 7
      Data: 
    - Name: $k
      Entry: 1
      Data: gravity
    - Name: $v
      Entry: 7
      Data: 11|UdonSharp.Compiler.FieldDefinition, UdonSharp.Editor
    - Name: <Name>k__BackingField
      Entry: 1
      Data: gravity
    - Name: <UserType>k__BackingField
      Entry: 9
      Data: 3
    - Name: <SystemType>k__BackingField
      Entry: 9
      Data: 3
    - Name: <SyncMode>k__BackingField
      Entry: 7
      Data: System.Nullable`1[[UdonSharp.UdonSyncMode, UdonSharp.Runtime]], mscorlib
    - Name: 
      Entry: 6
      Data: 
    - Name: 
      Entry: 8
      Data: 
    - Name: <IsSerialized>k__BackingField
      Entry: 5
      Data: true
    - Name: _fieldAttributes
      Entry: 7
      Data: 12|System.Collections.Generic.List`1[[System.Attribute, mscorlib]], mscorlib
    - Name: 
      Entry: 12
      Data: 0
    - Name: 
      Entry: 13
      Data: 
    - Name: 
      Entry: 8
      Data: 
    - Name: 
      Entry: 8
      Data: 
    - Name: 
      Entry: 8
      Data: 
    - Name: 
      Entry: 7
      Data: 
    - Name: $k
      Entry: 1
      Data: useLegacyLocomotion
    - Name: $v
      Entry: 7
      Data: 13|UdonSharp.Compiler.FieldDefinition, UdonSharp.Editor
    - Name: <Name>k__BackingField
      Entry: 1
      Data: useLegacyLocomotion
    - Name: <UserType>k__BackingField
      Entry: 7
      Data: 14|System.RuntimeType, mscorlib
    - Name: 
      Entry: 1
      Data: System.Boolean, mscorlib
    - Name: 
      Entry: 8
      Data: 
    - Name: <SystemType>k__BackingField
      Entry: 9
      Data: 14
    - Name: <SyncMode>k__BackingField
      Entry: 7
      Data: System.Nullable`1[[UdonSharp.UdonSyncMode, UdonSharp.Runtime]], mscorlib
    - Name: 
      Entry: 6
      Data: 
    - Name: 
      Entry: 8
      Data: 
    - Name: <IsSerialized>k__BackingField
      Entry: 5
      Data: true
    - Name: _fieldAttributes
      Entry: 7
      Data: 15|System.Collections.Generic.List`1[[System.Attribute, mscorlib]], mscorlib
    - Name: 
      Entry: 12
      Data: 1
    - Name: 
      Entry: 7
      Data: 16|UnityEngine.TooltipAttribute, UnityEngine.CoreModule
    - Name: tooltip
      Entry: 1
      Data: Enables legacy locomotion which allows stutter stepping and wall climbing
    - Name: 
      Entry: 8
      Data: 
    - Name: 
      Entry: 13
      Data: 
    - Name: 
      Entry: 8
      Data: 
    - Name: 
      Entry: 8
      Data: 
    - Name: 
      Entry: 8
      Data: 
    - Name: 
      Entry: 13
      Data: 
    - Name: 
      Entry: 8
      Data: 
