{
  "dependencies": {
    "com.vrchat.base": {
      "version": "3.5.0"
    },
    "com.vrchat.worlds": {
      "version": "3.5.0"
    },
    "com.vrchat.core.vpm-resolver": {
      "version": "0.1.27"
    }
  },
  "locked": {
    "com.vrchat.base": {
      "version": "3.5.0",
      "dependencies": {}
    },
    "com.vrchat.worlds": {
      "version": "3.5.0",
      "dependencies": {
        "com.vrchat.base": "3.5.0"
      }
    },
    "com.vrchat.core.vpm-resolver": {
      "version": "0.1.27",
      "dependencies": {}
    }
  }
}