%YAML 1.1
%TAG !u! tag:unity3d.com,2011:
--- !u!1045 &1
EditorBuildSettings:
  m_ObjectHideFlags: 0
  serializedVersion: 2
  m_Scenes: []
  m_configObjects:
    com.unity.xr.management.loader_settings: {fileID: 11400000, guid: 7d4ba8b7400b6034b9c0123d7a7e8cbf,
      type: 2}
